film-dataset - Prepare Ratings
…
    )
  ) |> 
  group_by(rater, clip, scale) |> 
  summarize(
    val = do.call("coalesce", as.list(val)),
    .groups = "drop"
  ) |> 
  mutate(
    scale = str_to_title(scale),
    clip = factor(clip, levels = c("aatb", "bs", "cmiyc", "dos", "f", "fg", "gm", "gwh", "ks", "lb", "lb2", "lms", "m", "mi", "ms", "ncom", "pf", "poh", "pt", "sn", "sotl", "z"),
                  labels = c("Akeelah", "BealeStreet", "CatchMe", "DaysSummer", "Fences", "ForrestGump", "GreenMile", "GoodWill", "KingsSpeech", "LadyBird", "LegallyBlonde", "LittleMiss", "Moonlight", "Miracle", "MarriageStory", "NoCountry", "PulpFiction", "Happyness", "ParentTrap", "SocialNetwork", "Silence", "Zodiac")),
  ) |> 
  print()

# A tibble: 7,920 × 4
   rater clip    scale          val
   <chr> <fct>   <chr>        <dbl>
 1 MW1   Akeelah Afraid           1
 2 MW1   Akeelah Alert            4
 3 MW1   Akeelah Determined       4
 4 MW1   Akeelah Distressed       1
 5 MW1   Akeelah Enthusiastic     4
 6 MW1   Akeelah Excited          4
 7 MW1   Akeelah Inspired         5
 8 MW1   Akeelah Nervous          1
 9 MW1   Akeelah Scared           1
10 MW1   Akeelah Upset            1
# … with 7,910 more rows
…
